#
#Sat Nov 15 13:01:49 GMT 2014
monospace=false
monospace.numerals=false
style=bold
alphabet=
tracking=0
stroke.color=\#333333
color=\#ffffff
shadow.y=0
family=SansSerif
shadow.x=0
shadow.color=\#000000
gradient.offset=0
shadow.blur=1
chars=all
stroke.size=0
antialias=true
size=12
